[
  {
    "id": 1,
    "name": "Пам`ятна медаль `110 років Одеському науково-дослідному інституту судових експертиз`",
    "shortDescription": "ПАМ’ЯТНА МЕДАЛЬ",
    "image": "https://i.postimg.cc/50pXSWFs/8FPa.png",
    "price": 49
  },
  {
    "id": 2,
    "name": "Країна супергероїв. Дякуємо залізничникам! (н)",
    "shortDescription": "МОНЕТА",
    "image": "https://i.postimg.cc/kXCnXp64/8FXr.png",
    "price": 198
  },
  {
    "id": 3,
    "name": "Країна супергероїв. Дякуємо волонтерам! (н)",
    "shortDescription": "МОНЕТА",
    "image": "https://i.postimg.cc/h4rYTyZh/C16a.png",
    "weight": 0.1,
    "price": 98
  },
  {
    "id": 4,
    "name": "Українська мова (н)",
    "shortDescription": "МОНЕТА",
    "image": "https://i.postimg.cc/V6w7bnjj/C19a.png",
    "price": 135
  },
  {
    "id": 5,
    "name": "Український борщ (н)",
    "shortDescription": "МОНЕТА",
    "image": "https://i.postimg.cc/T14qQDWN/C23a.png",
    "price": 162
  },
  {
    "id": 6,
    "name": "Захисниці (н)",
    "shortDescription": "МОНЕТА",
    "image": "https://i.postimg.cc/R0g3cztX/C31a.png",
    "price": 135
  },
  {
    "id": 7,
    "name": "Країна супергероїв. Дякуємо волонтерам! (н)",
    "shortDescription": "МОНЕТА",
    "image": "https://i.postimg.cc/h4rYTyZh/C16a.png",
    "price": 98
  },
  {
    "id": 8,
    "name": "Кохання (c)",
    "shortDescription": "МОНЕТА",
    "image": "https://i.postimg.cc/0yxC8Dqm/C36a.png",
    "price": 2984
  },
  {
    "id": 9,
    "name": "Управління державної охорони України (н)",
    "shortDescription": "МОНЕТА",
    "image": "https://i.postimg.cc/VkLbGR87/C40a.png",
    "price": 121
  },
  {
    "id": 10,
    "name": "Українська бавовна. Нептун (н)",
    "shortDescription": "МОНЕТА",
    "image": "https://i.postimg.cc/Bnr4LSMx/C41a.png",
    "price": 121
  },
  {
    "id": 11,
    "name": "Країна супергероїв. Дякуємо енергетикам (н)",
    "shortDescription": "МОНЕТА",
    "image": "https://i.postimg.cc/QMZVLJGG/C22a.png",
    "price": 98
  },
  {
    "id": 12,
    "name": "Пам`ятна медаль `Об`єднані заради справедливості`",
    "shortDescription": "ПАМ’ЯТНА МЕДАЛЬ",
    "image": "https://i.postimg.cc/C1zKkPb8/8FMa.png",
    "price": 49
  }
]